81915
0,0
1,0
1,1
1,2
1,3
2,3
3,3
4,3
5,3
6,3
7,3
8,3
8,4
9,4
9,5
9,6
9,7
10,7
11,7
11,8
11,9
11,10
12,10
12,11
13,11
13,12
13,13
13,14
14,14
14,15
15,15
15,16
16,16
16,17
16,18
16,19
16,20
17,20
18,20
19,20
19,21
19,22
19,23
20,23
21,23
22,23
22,24
22,25
22,26
22,27
22,28
22,29
22,30
22,31
23,31
24,31
25,31
26,31
27,31
27,32
28,32
29,32
29,33
29,34
30,34
31,34
32,34
32,35
32,36
32,37
32,38
32,39
32,40
33,40
33,41
33,42
33,43
33,44
33,45
33,46
34,46
34,47
34,48
34,49
34,50
35,50
35,51
35,52
36,52
37,52
38,52
38,53
39,53
40,53
41,53
42,53
43,53
44,53
44,52
44,51
44,50
45,50
46,50
47,50
48,50
48,51
48,52
49,52
49,53
50,53
51,53
51,54
52,54
53,54
54,54
55,54
55,53
56,53
57,53
57,54
58,54
58,55
58,56
59,56
59,57
59,58
60,58
61,58
61,59
62,59
63,59
64,59
65,59
66,59
67,59
67,60
68,60
69,60
69,61
70,61
71,61
72,61
73,61
73,62
74,62
75,62
75,63
75,64
76,64
76,65
77,65
78,65
78,66
79,66
80,66
80,67
80,68
80,69
80,70
80,71
80,72
80,73
81,73
81,74
81,75
81,76
81,77
82,77
83,77
84,77
84,78
85,78
86,78
86,79
87,79
88,79
89,79
90,79
91,79
92,79
92,80
93,80
94,80
95,80
95,81
95,82
96,82
96,83
96,84
96,85
97,85
97,86
97,87
97,88
98,88
99,88
99,89
100,89
100,90
101,90
101,91
102,91
102,92
103,92
104,92
104,93
105,93
106,93
106,94
106,95
107,95
108,95
109,95
109,96
109,97
109,98
109,99
110,99
110,100
110,101
110,102
110,103
110,104
110,105
111,105
111,106
111,107
111,108
112,108
113,108
113,109
113,110
113,111
114,111
115,111
115,112
115,113
116,113
117,113
117,114
118,114
118,115
118,116
118,117
119,117
119,118
120,118
121,118
122,118
122,119
122,120
123,120
124,120
124,121
124,122
124,123
125,123
125,124
125,125
126,125
127,125
128,125
128,126
128,127
128,128
128,129
129,129
129,130
129,131
129,132
129,133
130,133
131,133
132,133
133,133
134,133
135,133
136,133
137,133
137,134
137,135
138,135
138,136
138,137
138,138
138,139
138,140
139,140
140,140
141,140
141,141
141,142
141,143
142,143
142,144
142,145
143,145
144,145
145,145
145,146
145,147
146,147
146,148
147,148
148,148
148,149
149,149
150,149
151,149
151,150
152,150
153,150
154,150
154,151
155,151
155,152
155,153
156,153
157,153
158,153
158,154
158,155
158,156
158,157
159,157
160,157
161,157
162,157
163,157
163,158
163,159
163,160
163,161
164,161
165,161
165,162
166,162
167,162
168,162
169,162
169,163
170,163
170,164
170,165
170,166
171,166
171,167
171,168
172,168
173,168
173,169
174,169
174,170
174,171
174,172
175,172
175,173
175,174
176,174
177,174
178,174
179,174
180,174
181,174
182,174
183,174
184,174
184,175
184,176
184,177
185,177
185,178
186,178
186,179
186,180
186,181
186,182
186,183
186,184
187,184
188,184
189,184
190,184
191,184
192,184
192,185
193,185
193,186
194,186
195,186
196,186
197,186
198,186
199,186
200,186
201,186
201,185
202,185
203,185
204,185
205,185
206,185
207,185
208,185
208,186
209,186
210,186
211,186
212,186
212,187
213,187
213,188
213,189
213,190
213,191
213,192
213,193
213,194
213,195
212,195
212,196
212,197
213,197
214,197
214,198
214,199
214,200
214,201
215,201
215,202
216,202
216,203
217,203
217,204
218,204
219,204
220,204
220,205
220,206
220,207
220,208
220,209
221,209
222,209
222,210
222,211
222,212
222,213
222,214
222,215
223,215
223,216
223,217
224,217
225,217
225,218
226,218
226,219
226,220
226,221
227,221
228,221
229,221
230,221
231,221
231,222
231,223
232,223
233,223
234,223
234,224
234,225
234,226
235,226
235,227
235,228
236,228
237,228
237,229
238,229
238,230
239,230
240,230
241,230
242,230
243,230
244,230
244,231
244,232
244,233
245,233
245,234
245,235
246,235
246,236
246,237
247,237
248,237
249,237
249,238
250,238
251,238
252,238
253,238
254,238
254,239
254,240
254,241
254,242
255,242
255,243
256,243
256,244
256,245
257,245
257,246
258,246
258,247
258,248
258,249
258,250
258,251
259,251
259,252
260,252
260,253
261,253
261,254
261,255
262,255
263,255
263,256
263,257
263,258
263,259
263,260
264,260
265,260
265,261
265,262
266,262
267,262
267,263
268,263
268,264
269,264
270,264
270,265
270,266
271,266
272,266
272,267
273,267
274,267
275,267
275,268
275,269
276,269
277,269
278,269
279,269
279,270
279,271
279,272
280,272
281,272
282,272
283,272
283,273
283,274
283,275
284,275
285,275
285,276
285,277
285,278
285,279
285,280
285,281
286,281
287,281
287,282
287,283
288,283
288,284
288,285
289,285
289,286
289,287
290,287
291,287
292,287
292,288
293,288
294,288
295,288
296,288
297,288
298,288
299,288
299,289
300,289
301,289
302,289
302,290
303,290
303,291
304,291
305,291
305,292
305,293
305,294
306,294
307,294
308,294
309,294
310,294
310,295
310,296
310,297
311,297
312,297
312,298
313,298
313,299
314,299
315,299
316,299
317,299
317,300
317,301
318,301
319,301
320,301
321,301
321,302
322,302
323,302
323,303
324,303
324,304
324,305
325,305
325,306
326,306
326,307
326,308
326,309
326,310
326,311
326,312
326,313
326,314
326,315
327,315
327,316
327,317
327,318
327,319
327,320
327,321
327,322
327,323
326,323
326,324
326,325
326,326
327,326
328,326
328,327
328,328
329,328
329,329
329,330
329,331
330,331
331,331
332,331
333,331
334,331
335,331
336,331
337,331
338,331
339,331
339,332
340,332
341,332
341,333
342,333
343,333
343,334
344,334
344,335
344,336
345,336
345,337
345,338
345,339
345,340
345,341
345,342
346,342
347,342
347,343
347,344
347,345
348,345
348,346
349,346
349,347
350,347
350,348
350,349
350,350
350,351
350,352
350,353
350,354
350,355
351,355
352,355
352,356
352,357
352,358
352,359
353,359
354,359
355,359
355,360
355,361
355,362
355,363
356,363
357,363
358,363
359,363
360,363
361,363
362,363
363,363
363,364
364,364
364,365
365,365
365,366
366,366
367,366
368,366
369,366
369,367
369,368
369,369
369,370
369,371
369,372
370,372
371,372
372,372
372,373
373,373
373,374
373,375
373,376
374,376
374,377
374,378
374,379
375,379
376,379
376,380
377,380
377,381
377,382
378,382
379,382
379,383
380,383
380,384
380,385
380,386
380,387
380,388
380,389
380,390
380,391
380,392
380,393
380,394
380,395
380,396
379,396
379,397
379,398
379,399
379,400
379,401
380,401
380,402
380,403
380,404
381,404
381,405
381,406
381,407
381,408
381,409
381,410
381,411
382,411
382,412
382,413
382,414
382,415
382,416
382,417
382,418
382,419
382,420
382,421
383,421
383,422
383,423
384,423
384,424
384,425
384,426
384,427
384,428
385,428
385,429
385,430
385,431
385,432
385,433
386,433
386,434
387,434
388,434
389,434
390,434
390,435
390,436
390,437
390,438
390,439
390,440
391,440
391,441
392,441
392,442
392,443
392,444
393,444
394,444
394,445
395,445
395,446
396,446
397,446
398,446
399,446
399,447
399,448
400,448
400,449
400,450
400,451
400,452
400,453
400,454
401,454
402,454
403,454
403,455
403,456
403,457
403,458
403,459
403,460
403,461
404,461
404,462
405,462
406,462
406,463
406,464
406,465
406,466
406,467
407,467
408,467
408,468
408,469
408,470
409,470
409,471
410,471
410,472
410,473
411,473
411,474
411,475
412,475
413,475
414,475
415,475
415,476
415,477
416,477
417,477
418,477
419,477
419,478
419,479
419,480
419,481
420,481
420,482
420,483
421,483
422,483
422,484
423,484
424,484
424,485
424,486
425,486
425,487
426,487
426,488
426,489
426,490
427,490
427,491
428,491
429,491
429,492
430,492
430,493
431,493
431,494
431,495
431,496
431,497
431,498
431,499
431,500
431,501
431,502
430,502
430,503
430,504
429,504
429,505
429,506
429,507
429,508
430,508
430,509
431,509
431,510
431,511
432,511
432,512
433,512
433,513
433,514
434,514
435,514
435,515
435,516
435,517
435,518
436,518
437,518
437,519
437,520
437,521
438,521
438,522
439,522
439,523
439,524
439,525
440,525
441,525
442,525
442,524
443,524
444,524
444,525
445,525
445,526
446,526
446,527
446,528
447,528
448,528
449,528
450,528
451,528
452,528
453,528
453,529
453,530
453,531
453,532
454,532
454,533
454,534
454,535
454,536
454,537
454,538
454,539
454,540
455,540
455,541
455,542
455,543
455,544
455,545
455,546
455,547
455,548
455,549
455,550
455,551
456,551
457,551
457,552
458,552
458,553
458,554
458,555
458,556
459,556
460,556
460,557
460,558
461,558
461,559
461,560
461,561
461,562
461,563
461,564
461,565
460,565
460,566
460,567
461,567
461,568
461,569
461,570
462,570
463,570
463,571
463,572
463,573
464,573
465,573
466,573
466,574
467,574
468,574
469,574
470,574
471,574
471,575
471,576
471,577
471,578
471,579
472,579
472,580
472,581
473,581
473,582
473,583
473,584
473,585
473,586
473,587
473,588
473,589
473,590
473,591
473,592
474,592
474,593
474,594
475,594
475,595
475,596
475,597
475,598
475,599
475,600
475,601
476,601
477,601
478,601
478,602
478,603
479,603
480,603
480,604
480,605
480,606
481,606
481,607
481,608
482,608
482,609
483,609
483,610
483,611
483,612
484,612
484,613
484,614
484,615
484,616
483,616
482,616
482,617
481,617
480,617
480,618
480,619
480,620
480,621
479,621
478,621
478,622
478,623
479,623
479,624
479,625
479,626
479,627
479,628
479,629
480,629
481,629
481,630
481,631
481,632
481,633
481,634
481,635
481,636
481,637
481,638
482,638
482,639
482,640
482,641
481,641
481,642
481,643
481,644
481,645
481,646
481,647
481,648
481,649
481,650
482,650
482,651
483,651
483,652
483,653
483,654
483,655
484,655
484,656
484,657
484,658
484,659
484,660
485,660
486,660
486,661
486,662
487,662
487,663
488,663
488,664
488,665
489,665
490,665
491,665
492,665
493,665
493,666
494,666
495,666
496,666
497,666
498,666
499,666
499,667
500,667
500,668
501,668
501,669
501,670
502,670
503,670
503,671
503,672
503,673
504,673
504,674
504,675
504,676
504,677
504,678
504,679
505,679
505,680
506,680
506,681
507,681
507,682
507,683
507,684
507,685
507,686
508,686
509,686
509,687
509,688
510,688
510,689
510,690
511,690
512,690
512,691
512,692
512,693
512,694
513,694
514,694
515,694
516,694
516,695
516,696
517,696
517,697
517,698
517,699
517,700
517,701
517,702
518,702
519,702
519,703
519,704
520,704
521,704
522,704
522,705
523,705
523,706
523,707
523,708
523,709
524,709
525,709
526,709
526,710
526,711
527,711
527,712
528,712
529,712
530,712
531,712
532,712
533,712
533,713
533,714
533,715
533,716
533,717
533,718
533,719
533,720
533,721
533,722
533,723
532,723
532,724
532,725
532,726
532,727
532,728
533,728
533,729
533,730
533,731
534,731
534,732
535,732
536,732
537,732
537,733
537,734
537,735
537,736
537,737
537,738
537,739
537,740
537,741
537,742
538,742
538,743
538,744
538,745
538,746
538,747
539,747
540,747
540,748
540,749
540,750
540,751
540,752
540,753
540,754
540,755
540,756
540,757
541,757
541,758
542,758
543,758
543,759
543,760
544,760
544,761
544,762
545,762
546,762
546,763
547,763
547,764
547,765
547,766
547,767
547,768
547,769
547,770
547,771
547,772
547,773
548,773
548,774
548,775
548,776
548,777
548,778
547,778
546,778
546,779
546,780
546,781
546,782
546,783
546,784
545,784
545,785
545,786
545,787
546,787
546,788
546,789
547,789
547,790
547,791
547,792
547,793
548,793
548,794
548,795
549,795
550,795
550,796
550,797
550,798
550,799
550,800
550,801
551,801
552,801
552,802
552,803
552,804
552,805
552,806
552,807
552,808
552,809
553,809
554,809
554,810
554,811
554,812
554,813
554,814
555,814
556,814
556,815
556,816
556,817
556,818
556,819
556,820
556,821
556,822
556,823
556,824
556,825
557,825
557,826
557,827
558,827
558,828
559,828
559,829
560,829
560,830
560,831
561,831
562,831
563,831
564,831
565,831
565,832
565,833
565,834
565,835
565,836
565,837
566,837
566,838
567,838
568,838
568,839
568,840
568,841
568,842
568,843
568,844
568,845
568,846
569,846
569,847
569,848
570,848
570,849
570,850
570,851
570,852
570,853
570,854
570,855
569,855
569,856
569,857
570,857
570,858
570,859
570,860
571,860
571,861
572,861
573,861
574,861
575,861
575,862
575,863
576,863
576,864
576,865
576,866
576,867
576,868
576,869
577,869
578,869
579,869
579,870
579,871
579,872
579,873
579,874
579,875
579,876
579,877
580,877
581,877
581,878
582,878
582,879
583,879
583,880
583,881
584,881
585,881
586,881
587,881
588,881
588,882
588,883
588,884
588,885
587,885
587,886
587,887
587,888
588,888
588,889
588,890
588,891
589,891
590,891
590,892
590,893
590,894
590,895
590,896
591,896
592,896
593,896
593,897
594,897
594,898
594,899
594,900
594,901
594,902
594,903
594,904
595,904
596,904
596,903
597,903
598,903
599,903
600,903
600,904
600,905
601,905
601,906
601,907
601,908
601,909
602,909
603,909
603,910
603,911
603,912
603,913
603,914
604,914
604,915
604,916
604,917
605,917
605,918
605,919
606,919
607,919
608,919
609,919
609,920
610,920
610,921
610,922
611,922
612,922
612,923
613,923
613,924
613,925
613,926
614,926
615,926
616,926
617,926
618,926
619,926
619,927
620,927
621,927
622,927
623,927
624,927
625,927
626,927
627,927
627,928
627,929
627,930
627,931
628,931
628,932
628,933
629,933
629,934
630,934
630,935
630,936
631,936
632,936
632,937
632,938
632,939
633,939
634,939
634,940
634,941
634,942
634,943
634,944
634,945
634,946
634,947
634,948
634,949
635,949
635,950
635,951
636,951
637,951
637,952
638,952
639,952
640,952
640,953
640,954
641,954
642,954
643,954
644,954
645,954
646,954
647,954
648,954
649,954
650,954
651,954
652,954
653,954
654,954
655,954
656,954
657,954
658,954
659,954
659,955
660,955
661,955
662,955
663,955
664,955
665,955
665,956
666,956
666,957
667,957
667,958
668,958
668,959
669,959
670,959
671,959
672,959
673,959
674,959
674,958
675,958
675,957
676,957
677,957
677,958
678,958
679,958
680,958
681,958
682,958
683,958
684,958
685,958
686,958
687,958
687,957
688,957
688,956
688,955
688,954
689,954
690,954
691,954
692,954
693,954
694,954
695,954
696,954
697,954
698,954
699,954
700,954
701,954
701,955
702,955
703,955
703,956
703,957
704,957
705,957
706,957
707,957
708,957
709,957
710,957
711,957
712,957
713,957
714,957
715,957
716,957
717,957
718,957
719,957
720,957
720,958
720,959
721,959
722,959
723,959
724,959
725,959
726,959
727,959
727,960
728,960
729,960
730,960
731,960
732,960
733,960
733,961
733,962
733,963
734,963
735,963
736,963
737,963
738,963
739,963
740,963
741,963
742,963
743,963
744,963
745,963
745,964
746,964
747,964
747,963
748,963
749,963
750,963
751,963
751,962
752,962
753,962
754,962
755,962
756,962
757,962
758,962
759,962
760,962
761,962
761,961
762,961
763,961
764,961
765,961
766,961
767,961
768,961
769,961
770,961
771,961
771,960
772,960
772,959
773,959
774,959
774,958
775,958
776,958
777,958
778,958
778,959
779,959
780,959
781,959
781,960
782,960
783,960
784,960
785,960
786,960
787,960
788,960
789,960
790,960
791,960
792,960
793,960
793,961
794,961
795,961
795,962
796,962
797,962
798,962
799,962
799,963
800,963
801,963
802,963
803,963
804,963
804,964
805,964
806,964
807,964
808,964
809,964
809,963
810,963
811,963
812,963
813,963
814,963
815,963
815,962
816,962
816,961
817,961
818,961
819,961
820,961
821,961
822,961
822,962
823,962
824,962
825,962
826,962
827,962
828,962
829,962
830,962
831,962
832,962
832,963
833,963
834,963
834,964
835,964
836,964
837,964
838,964
839,964
840,964
840,965
841,965
842,965
843,965
844,965
845,965
846,965
847,965
848,965
848,966
849,966
849,967
850,967
850,968
851,968
852,968
853,968
853,967
854,967
854,966
854,965
855,965
856,965
857,965
857,966
857,967
857,968
858,968
859,968
860,968
861,968
862,968
863,968
864,968
865,968
865,969
866,969
866,970
867,970
868,970
869,970
870,970
871,970
872,970
872,969
873,969
874,969
875,969
876,969
877,969
878,969
879,969
880,969
881,969
882,969
883,969
884,969
885,969
886,969
887,969
888,969
889,969
890,969
891,969
892,969
893,969
893,968
894,968
895,968
896,968
897,968
897,967
898,967
898,966
899,966
900,966
901,966
902,966
903,966
904,966
905,966
905,965
906,965
907,965
908,965
908,966
909,966
909,967
909,968
909,969
910,969
911,969
911,970
912,970
913,970
913,971
914,971
915,971
915,970
915,969
916,969
916,968
917,968
918,968
919,968
919,967
920,967
920,966
921,966
922,966
922,965
923,965
924,965
925,965
926,965
927,965
928,965
929,965
930,965
931,965
932,965
933,965
934,965
935,965
936,965
936,966
937,966
938,966
939,966
939,967
940,967
940,968
941,968
942,968
943,968
944,968
945,968
946,968
946,969
947,969
948,969
948,970
949,970
950,970
950,971
951,971
951,972
952,972
953,972
954,972
955,972
956,972
957,972
958,972
959,972
960,972
961,972
961,973
961,974
962,974
963,974
963,973
964,973
965,973
966,973
967,973
967,972
967,971
967,970
968,970
969,970
969,969
970,969
971,969
972,969
973,969
974,969
974,970
975,970
976,970
977,970
978,970
979,970
979,970
979,970
979,970
979,970
979,970
979,970
979,970
979,970
979,970
979,970
979,970
979,970
979,970
979,970
979,970
979,970
979,970
979,970
979,970
979,970
979,970
979,970
979,970
979,970
979,970
979,970
979,970
979,970
979,970
979,970
979,970
979,970
979,970
979,970
979,970
979,970
979,970
979,970
979,970
979,970
979,970
979,970
979,970
979,970
979,970
979,970
979,970
979,970
979,970
979,970
979,970
979,970
979,970
979,970
979,970
979,970
979,970
979,970
979,970
979,970
979,970
979,970
979,970
979,970
979,970
979,970
979,970
979,970
979,970
979,970
979,970
979,970
979,970
979,970
979,970
979,970
979,970
979,970
979,971
979,972
980,972
981,972
982,972
983,972
984,972
984,971
985,971
985,970
986,970
987,970
988,970
988,969
989,969
990,969
990,968
990,967
991,967
992,967
